{
    "baseUrl" : "http://idosast.southeastasia.cloudapp.azure.com:5001",
    "domainName" : "apiprod.zenqore.com",
    "basePath" : "indexedb",
    "aaccessKeyId":"AKIAQ5433D5OREOUAFEG",
    "secreteAccessKey":"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"
}
